…
### Working with the tidyverse

For `tidyverse` users, the `deflate` function can be easily used inside
code chains:

``` r
library(tidyverse)

df %>%
  mutate(deflated_reais = deflate(reais, dates, reference, "ipca"))
#>   |                                                                              |                                                                      |   0%  |                                                                              |=============================                                         |  41%  |                                                                              |======================================================================| 100%
#> # A tibble: 100 × 3
#>    reais dates      deflated_reais
#>    <int> <date>              <dbl>
#>  1   101 2001-01-01           296.
#>  2   102 2001-02-01           297.
#>  3   103 2001-03-01           299.
#>  4   104 2001-04-01           300.
#>  5   105 2001-05-01           301.
#>  6   106 2001-06-01           303.
#>  7   107 2001-07-01           304.
#>  8   108 2001-08-01           303.
#>  9   109 2001-09-01           304.
#> 10   110 2001-10-01           306.
#> # ℹ 90 more rows
```
…
